{
    "controllers" : [
        {
            "type" : "PIDController",
            "params" : {
                "kp" : 20,
                "ki" : 0.0,
                "kd" : 0.0,
                "cmd_max" : 0.0
            }
        }
    ]
}
