
** (clipit:2020): WARNING **: 20:00:03.861: Binding '<Ctrl><Alt>H' failed!


** (clipit:2020): WARNING **: 20:00:03.861: Binding '<Ctrl><Alt>A' failed!


** (clipit:2020): WARNING **: 20:00:03.861: Binding '<Ctrl><Alt>P' failed!


** (clipit:2020): WARNING **: 20:00:03.861: Binding '<Ctrl><Alt>F' failed!


** (clipit:2020): WARNING **: 20:00:03.861: Binding '<Ctrl><Alt>O' failed!

