{
    "model_name" : "pendulum",
    "trajectory_type" : "TrapezoidalVelocity",
    "target_space" : "joint",
    "targets" : [[0],[-0.5],[-2.0]],
    "planification_space" : "joint",
    "start" : 1.0,
    "parameters" : {
        "acc_max" : 3.0,
        "vel_max" : 1.0
    }
}
