{
    "model_name" : "rrr",
    "trajectory_type" : "LinearSpline",
    "target_space" : "operational",
    "targets" : [[0,0.8,0.0,1.05],[2,0.0,0.8,1.05],[4,0.0,0.8,0.65]],
    "planification_space" : "operational",
    "start" : 1.5
}
