<robot name="pendulum_robot">
  <link name="basis">
    <inertial>
      <origin xyz="0.0 0 0.05" rpy="0 0 0"/>
      <mass value="1"/>
      <inertia ixx="100"  ixy="0"  ixz="0" iyy="1" iyz="0" izz="1" />
    </inertial>
    <visual>
      <origin xyz="0 0 0.05" rpy="0 0 0" />
      <geometry>
        <box size="2.2 0.1 0.1" />
      </geometry>
      <material name="black">
        <color rgba="0 0 0 1.0"/>
      </material>
    </visual>
    <collision>
      <origin xyz="0 0 0.05" rpy="0 0 0"/>
      <geometry>
        <box size="2.2 0.1 0.1" />
      </geometry>
    </collision>
  </link>
  <link name="body1">
    <inertial>
      <origin xyz="0.0 0 0" rpy="0 0 0"/>
      <mass value="1.0"/>
      <inertia ixx="25"  ixy="0"  ixz="0" iyy="1" iyz="0" izz="1" />
    </inertial>
    <visual>
      <origin xyz="0.0 0 0" rpy="0 0 0" />
      <geometry>
        <box size="0.2 0.1 0.1" />
      </geometry>
      <material name="reddishpurple">
        <color rgba="0.8 0.6 0.7 1.0"/>
      </material>
    </visual>
    <collision>
      <origin xyz="0.0 0 0" rpy="0 0 0"/>
      <geometry>
        <box size="0.2 0.1 0.1" />
      </geometry>
    </collision>
  </link>
  <joint name="dof1" type="prismatic">
    <origin xyz="0.0 0.0 0.15" rpy="0 0 0"/>
    <parent link="basis" />
    <child link="body1" />
    <axis xyz="1 0 0" />
    <dynamics damping="0.02" friction="0.01" />
    <limit effort="5.0" lower="-1.0" upper="1.0"/>
  </joint>
</robot>
