x*cos(a) - y*sin(a)=-(0.3*cos(b) + 0.4)*sin(a)
x*sin(a) + y*cos(a)=(0.3*cos(b) + 0.4)*cos(a)
z + 1.01=0.3*sin(b) + 1.01
x*cos(a) - y*sin(a) + 0.02=-0.4*sin(a) + 0.02*cos(a)
-(z + 1.01)*sin(b) + (x*sin(a) + y*cos(a))*cos(b) + 0.4=0.02*sin(a) + 0.4*cos(a)
(z + 1.01)*cos(b) + (x*sin(a) + y*cos(a))*sin(b)=1.01
x*cos(a) - y*sin(a)=0
x*sin(a)*cos(b + c) + y*cos(a)*cos(b + c) - z*sin(b + c) - 1.01*sin(b + c) + 0.4*cos(c) + 0.3=0
x*sin(a)*sin(b + c) + y*sin(b + c)*cos(a) + z*cos(b + c) + 0.4*sin(c) + 1.01*cos(b + c)=1.01,
solve [x*cos(a) - y*sin(a)=-(0.3*cos(b) + 0.4)*sin(a),
x*sin(a) + y*cos(a)=(0.3*cos(b) + 0.4)*cos(a)] for [a,b]
